\relax 
\providecommand\HyperFirstAtBeginDocument{\AtBeginDocument}
\HyperFirstAtBeginDocument{\ifx\hyper@anchor\@undefined
\global\let\oldcontentsline\contentsline
\gdef\contentsline#1#2#3#4{\oldcontentsline{#1}{#2}{#3}}
\global\let\oldnewlabel\newlabel
\gdef\newlabel#1#2{\newlabelxx{#1}#2}
\gdef\newlabelxx#1#2#3#4#5#6{\oldnewlabel{#1}{{#2}{#3}}}
\AtEndDocument{\ifx\hyper@anchor\@undefined
\let\contentsline\oldcontentsline
\let\newlabel\oldnewlabel
\fi}
\fi}
\global\let\hyper@last\relax 
\gdef\HyperFirstAtBeginDocument#1{#1}
\providecommand\HyField@AuxAddToFields[1]{}
\providecommand\HyField@AuxAddToCoFields[2]{}
\@writefile{toc}{\contentsline {section}{Currently}{1}{section*.1}\protected@file@percent }
\@writefile{toc}{\contentsline {section}{Expertise}{1}{section*.2}\protected@file@percent }
\@writefile{toc}{\contentsline {section}{Education}{1}{section*.3}\protected@file@percent }
\@writefile{toc}{\contentsline {section}{Experience}{1}{section*.4}\protected@file@percent }
\@writefile{toc}{\contentsline {subsection}{Research}{1}{section*.5}\protected@file@percent }
\@writefile{toc}{\contentsline {subsection}{Teaching}{1}{section*.6}\protected@file@percent }
\@writefile{toc}{\contentsline {subsection}{Supervisions}{1}{section*.7}\protected@file@percent }
\@writefile{toc}{\contentsline {subsection}{Extracurricular}{2}{section*.8}\protected@file@percent }
\@writefile{toc}{\contentsline {section}{Awards and grants}{2}{section*.9}\protected@file@percent }
\@writefile{toc}{\contentsline {section}{Science outreach and event organization}{2}{section*.10}\protected@file@percent }
\@writefile{toc}{\contentsline {section}{Skills}{2}{section*.11}\protected@file@percent }
\@writefile{toc}{\contentsline {section}{External links}{3}{section*.12}\protected@file@percent }
\@writefile{toc}{\contentsline {section}{Languages}{3}{section*.13}\protected@file@percent }
\@writefile{toc}{\contentsline {section}{Coding projects}{3}{section*.14}\protected@file@percent }
\citation{*}
\bibstyle{plainyr}
\bibdata{publications}
\bibcite{7001581}{1}
\bibcite{7438767}{2}
\bibcite{DELIMA201827}{3}
\bibcite{8295002}{4}
\bibcite{0953-8984-30-17-175401}{5}
\bibcite{PhysRevB.100.125411}{6}
\bibcite{PhysRevResearch.2.022001}{7}
\bibcite{Manesco_2020}{8}
\bibcite{PhysRevB.103.125134}{9}
\bibcite{PhysRevB.104.014516}{10}
\bibcite{Manesco_2021}{11}
\bibcite{mendonca2022cancaroli}{12}
\bibcite{10.21468/SciPostPhysCore.5.3.045}{13}
\bibcite{manesco2022spatial}{14}
\@writefile{toc}{\contentsline {section}{Publications}{4}{section*.15}\protected@file@percent }
\gdef \@abspage@last{4}
